{ "_id" : { "$oid" : "5799a8fe617f690d1b7b23c6" }, "name" : "Andorra", "code" : "AD", "currency_code" : "EUR" }
{ "_id" : { "$oid" : "5799a8ff617f690d1b7b23c7" }, "name" : "United Arab Emirates", "code" : "AE", "currency_code" : "AED" }
{ "_id" : { "$oid" : "5799a8ff617f690d1b7b23c8" }, "name" : "Afghanistan", "code" : "AF", "currency_code" : "AFN" }
{ "_id" : { "$oid" : "5799a8ff617f690d1b7b23c9" }, "name" : "Antigua and Barbuda", "code" : "AG", "currency_code" : "XCD" }
{ "_id" : { "$oid" : "5799a8ff617f690d1b7b23ca" }, "name" : "Anguilla", "code" : "AI", "currency_code" : "XCD" }
{ "_id" : { "$oid" : "5799a8ff617f690d1b7b23cb" }, "name" : "Albania", "code" : "AL", "currency_code" : "ALL" }
{ "_id" : { "$oid" : "5799a8ff617f690d1b7b23cc" }, "name" : "Armenia", "code" : "AM", "currency_code" : "AMD" }
{ "_id" : { "$oid" : "5799a8ff617f690d1b7b23cd" }, "name" : "Angola", "code" : "AO", "currency_code" : "AOA" }
{ "_id" : { "$oid" : "5799a8ff617f690d1b7b23ce" }, "name" : "Antarctica", "code" : "AQ", "currency_code" : "XCD" }
{ "_id" : { "$oid" : "5799a8ff617f690d1b7b23cf" }, "name" : "Argentina", "code" : "AR", "currency_code" : "ARS" }
{ "_id" : { "$oid" : "5799a8ff617f690d1b7b23d0" }, "name" : "American Samoa", "code" : "AS", "currency_code" : "USD" }
{ "_id" : { "$oid" : "5799a8ff617f690d1b7b23d1" }, "name" : "Austria", "code" : "AT", "currency_code" : "EUR" }
{ "_id" : { "$oid" : "5799a8ff617f690d1b7b23d2" }, "name" : "Australia", "code" : "AU", "currency_code" : "AUD" }
{ "_id" : { "$oid" : "5799a8ff617f690d1b7b23d3" }, "name" : "Aruba", "code" : "AW", "currency_code" : "AWG" }
{ "_id" : { "$oid" : "5799a8ff617f690d1b7b23d4" }, "name" : "Åland Islands", "code" : "AX", "currency_code" : "EUR" }
{ "_id" : { "$oid" : "5799a8ff617f690d1b7b23d5" }, "name" : "Azerbaijan", "code" : "AZ", "currency_code" : "AZN" }
{ "_id" : { "$oid" : "5799a8ff617f690d1b7b23d6" }, "name" : "Bosnia and Herzegovina", "code" : "BA", "currency_code" : "BAM" }
{ "_id" : { "$oid" : "5799a8ff617f690d1b7b23d7" }, "name" : "Barbados", "code" : "BB", "currency_code" : "BBD" }
{ "_id" : { "$oid" : "5799a8ff617f690d1b7b23d8" }, "name" : "Bangladesh", "code" : "BD", "currency_code" : "BDT" }
{ "_id" : { "$oid" : "5799a8ff617f690d1b7b23d9" }, "name" : "Belgium", "code" : "BE", "currency_code" : "EUR" }
{ "_id" : { "$oid" : "5799a8ff617f690d1b7b23da" }, "name" : "Burkina Faso", "code" : "BF", "currency_code" : "XOF" }
{ "_id" : { "$oid" : "5799a8ff617f690d1b7b23db" }, "name" : "Bulgaria", "code" : "BG", "currency_code" : "BGN" }
{ "_id" : { "$oid" : "5799a8ff617f690d1b7b23dc" }, "name" : "Bahrain", "code" : "BH", "currency_code" : "BHD" }
{ "_id" : { "$oid" : "5799a8ff617f690d1b7b23dd" }, "name" : "Burundi", "code" : "BI", "currency_code" : "BIF" }
{ "_id" : { "$oid" : "5799a8ff617f690d1b7b23de" }, "name" : "Benin", "code" : "BJ", "currency_code" : "XOF" }
{ "_id" : { "$oid" : "5799a8ff617f690d1b7b23df" }, "name" : "Saint Barthélemy", "code" : "BL", "currency_code" : "EUR" }
{ "_id" : { "$oid" : "5799a8ff617f690d1b7b23e0" }, "name" : "Bermuda", "code" : "BM", "currency_code" : "BMD" }
{ "_id" : { "$oid" : "5799a8ff617f690d1b7b23e1" }, "name" : "Brunei Darussalam", "code" : "BN", "currency_code" : "BND" }
{ "_id" : { "$oid" : "5799a8ff617f690d1b7b23e2" }, "name" : "Bolivia", "code" : "BO", "currency_code" : "BOB" }
{ "_id" : { "$oid" : "5799a8ff617f690d1b7b23e3" }, "name" : "Caribbean Netherlands", "code" : "BQ", "currency_code" : "USD" }
{ "_id" : { "$oid" : "5799a8ff617f690d1b7b23e4" }, "name" : "Brazil", "code" : "BR", "currency_code" : "BRL" }
{ "_id" : { "$oid" : "5799a8ff617f690d1b7b23e5" }, "name" : "Bahamas", "code" : "BS", "currency_code" : "BSD" }
{ "_id" : { "$oid" : "5799a8ff617f690d1b7b23e6" }, "name" : "Bhutan", "code" : "BT", "currency_code" : "BTN" }
{ "_id" : { "$oid" : "5799a8ff617f690d1b7b23e7" }, "name" : "Bouvet Island", "code" : "BV", "currency_code" : "NOK" }
{ "_id" : { "$oid" : "5799a8ff617f690d1b7b23e8" }, "name" : "Botswana", "code" : "BW", "currency_code" : "BWP" }
{ "_id" : { "$oid" : "5799a8ff617f690d1b7b23e9" }, "name" : "Belarus", "code" : "BY", "currency_code" : "BYR" }
{ "_id" : { "$oid" : "5799a8ff617f690d1b7b23ea" }, "name" : "Belize", "code" : "BZ", "currency_code" : "BZD" }
{ "_id" : { "$oid" : "5799a8ff617f690d1b7b23eb" }, "name" : "Canada", "code" : "CA", "currency_code" : "CAD" }
{ "_id" : { "$oid" : "5799a8ff617f690d1b7b23ec" }, "name" : "Cocos (Keeling) Islands", "code" : "CC", "currency_code" : "AUD" }
{ "_id" : { "$oid" : "5799a8ff617f690d1b7b23ed" }, "name" : "Congo, Democratic Republic of", "code" : "CD", "currency_code" : "CDF" }
{ "_id" : { "$oid" : "5799a8ff617f690d1b7b23ee" }, "name" : "Central African Republic", "code" : "CF", "currency_code" : "XAF" }
{ "_id" : { "$oid" : "5799a8ff617f690d1b7b23ef" }, "name" : "Congo", "code" : "CG", "currency_code" : "XAF" }
{ "_id" : { "$oid" : "5799a8ff617f690d1b7b23f0" }, "name" : "Switzerland", "code" : "CH", "currency_code" : "CHF" }
{ "_id" : { "$oid" : "5799a8ff617f690d1b7b23f1" }, "name" : "Côte d'Ivoire", "code" : "CI", "currency_code" : "XOF" }
{ "_id" : { "$oid" : "5799a8ff617f690d1b7b23f2" }, "name" : "Cook Islands", "code" : "CK", "currency_code" : "NZD" }
{ "_id" : { "$oid" : "5799a8ff617f690d1b7b23f3" }, "name" : "Chile", "code" : "CL", "currency_code" : "CLP" }
{ "_id" : { "$oid" : "5799a8ff617f690d1b7b23f4" }, "name" : "Cameroon", "code" : "CM", "currency_code" : "XAF" }
{ "_id" : { "$oid" : "5799a8ff617f690d1b7b23f5" }, "name" : "China", "code" : "CN", "currency_code" : "CNY" }
{ "_id" : { "$oid" : "5799a8ff617f690d1b7b23f6" }, "name" : "Colombia", "code" : "CO", "currency_code" : "COP" }
{ "_id" : { "$oid" : "5799a8ff617f690d1b7b23f7" }, "name" : "Costa Rica", "code" : "CR", "currency_code" : "CRC" }
{ "_id" : { "$oid" : "5799a8ff617f690d1b7b23f8" }, "name" : "Cuba", "code" : "CU", "currency_code" : "CUP" }
{ "_id" : { "$oid" : "5799a8ff617f690d1b7b23f9" }, "name" : "Cape Verde", "code" : "CV", "currency_code" : "CVE" }
{ "_id" : { "$oid" : "5799a8ff617f690d1b7b23fa" }, "name" : "Curaçao", "code" : "CW", "currency_code" : "ANG" }
{ "_id" : { "$oid" : "5799a8ff617f690d1b7b23fb" }, "name" : "Christmas Island", "code" : "CX", "currency_code" : "AUD" }
{ "_id" : { "$oid" : "5799a8ff617f690d1b7b23fc" }, "name" : "Cyprus", "code" : "CY", "currency_code" : "CYP" }
{ "_id" : { "$oid" : "5799a8ff617f690d1b7b23fd" }, "name" : "Czech Republic", "code" : "CZ", "currency_code" : "CZK" }
{ "_id" : { "$oid" : "5799a8ff617f690d1b7b23fe" }, "name" : "Germany", "code" : "DE", "currency_code" : "EUR" }
{ "_id" : { "$oid" : "5799a8ff617f690d1b7b23ff" }, "name" : "Djibouti", "code" : "DJ", "currency_code" : "DJF" }
{ "_id" : { "$oid" : "5799a8ff617f690d1b7b2400" }, "name" : "Denmark", "code" : "DK", "currency_code" : "DKK" }
{ "_id" : { "$oid" : "5799a8ff617f690d1b7b2401" }, "name" : "Dominica", "code" : "DM", "currency_code" : "XCD" }
{ "_id" : { "$oid" : "5799a8ff617f690d1b7b2402" }, "name" : "Dominican Republic", "code" : "DO", "currency_code" : "DOP" }
{ "_id" : { "$oid" : "5799a8ff617f690d1b7b2403" }, "name" : "Algeria", "code" : "DZ", "currency_code" : "DZD" }
{ "_id" : { "$oid" : "5799a8ff617f690d1b7b2404" }, "name" : "Ecuador", "code" : "EC", "currency_code" : "ECS" }
{ "_id" : { "$oid" : "5799a8ff617f690d1b7b2405" }, "name" : "Estonia", "code" : "EE", "currency_code" : "EUR" }
{ "_id" : { "$oid" : "5799a8ff617f690d1b7b2406" }, "name" : "Egypt", "code" : "EG", "currency_code" : "EGP" }
{ "_id" : { "$oid" : "5799a8ff617f690d1b7b2407" }, "name" : "Western Sahara", "code" : "EH", "currency_code" : "MAD" }
{ "_id" : { "$oid" : "5799a8ff617f690d1b7b2408" }, "name" : "Eritrea", "code" : "ER", "currency_code" : "ERN" }
{ "_id" : { "$oid" : "5799a8ff617f690d1b7b2409" }, "name" : "Spain", "code" : "ES", "currency_code" : "EUR" }
{ "_id" : { "$oid" : "5799a8ff617f690d1b7b240a" }, "name" : "Ethiopia", "code" : "ET", "currency_code" : "ETB" }
{ "_id" : { "$oid" : "5799a8ff617f690d1b7b240b" }, "name" : "Finland", "code" : "FI", "currency_code" : "EUR" }
{ "_id" : { "$oid" : "5799a8ff617f690d1b7b240c" }, "name" : "Fiji", "code" : "FJ", "currency_code" : "FJD" }
{ "_id" : { "$oid" : "5799a8ff617f690d1b7b240d" }, "name" : "Falkland Islands", "code" : "FK", "currency_code" : "FKP" }
{ "_id" : { "$oid" : "5799a8ff617f690d1b7b240e" }, "name" : "Micronesia, Federated States of", "code" : "FM", "currency_code" : "USD" }
{ "_id" : { "$oid" : "5799a8ff617f690d1b7b240f" }, "name" : "Faroe Islands", "code" : "FO", "currency_code" : "DKK" }
{ "_id" : { "$oid" : "5799a8ff617f690d1b7b2410" }, "name" : "France", "code" : "FR", "currency_code" : "EUR" }
{ "_id" : { "$oid" : "5799a8ff617f690d1b7b2411" }, "name" : "Gabon", "code" : "GA", "currency_code" : "XAF" }
{ "_id" : { "$oid" : "5799a8ff617f690d1b7b2412" }, "name" : "United Kingdom", "code" : "GB", "currency_code" : "GBP" }
{ "_id" : { "$oid" : "5799a8ff617f690d1b7b2413" }, "name" : "Grenada", "code" : "GD", "currency_code" : "XCD" }
{ "_id" : { "$oid" : "5799a8ff617f690d1b7b2414" }, "name" : "Georgia", "code" : "GE", "currency_code" : "EUR" }
{ "_id" : { "$oid" : "5799a8ff617f690d1b7b2415" }, "name" : "French Guiana", "code" : "GF", "currency_code" : "GEL" }
{ "_id" : { "$oid" : "5799a8ff617f690d1b7b2416" }, "name" : "Guernsey", "code" : "GG", "currency_code" : "GBP" }
{ "_id" : { "$oid" : "5799a8ff617f690d1b7b2417" }, "name" : "Ghana", "code" : "GH", "currency_code" : "GHS" }
{ "_id" : { "$oid" : "5799a8ff617f690d1b7b2418" }, "name" : "Gibraltar", "code" : "GI", "currency_code" : "GIP" }
{ "_id" : { "$oid" : "5799a8ff617f690d1b7b2419" }, "name" : "Greenland", "code" : "GL", "currency_code" : "DKK" }
{ "_id" : { "$oid" : "5799a8ff617f690d1b7b241a" }, "name" : "Gambia", "code" : "GM", "currency_code" : "GMD" }
{ "_id" : { "$oid" : "5799a8ff617f690d1b7b241b" }, "name" : "Guinea", "code" : "GN", "currency_code" : "GNF" }
{ "_id" : { "$oid" : "5799a8ff617f690d1b7b241c" }, "name" : "Guadeloupe", "code" : "GP", "currency_code" : "EUR" }
{ "_id" : { "$oid" : "5799a8ff617f690d1b7b241d" }, "name" : "Equatorial Guinea", "code" : "GQ", "currency_code" : "XAF" }
{ "_id" : { "$oid" : "5799a8ff617f690d1b7b241e" }, "name" : "Greece", "code" : "GR", "currency_code" : "EUR" }
{ "_id" : { "$oid" : "5799a8ff617f690d1b7b241f" }, "name" : "South Georgia and the South Sandwich Islands", "code" : "GS", "currency_code" : "GBP" }
{ "_id" : { "$oid" : "5799a8ff617f690d1b7b2420" }, "name" : "Guatemala", "code" : "GT", "currency_code" : "QTQ" }
{ "_id" : { "$oid" : "5799a8ff617f690d1b7b2421" }, "name" : "Guam", "code" : "GU", "currency_code" : "USD" }
{ "_id" : { "$oid" : "5799a8ff617f690d1b7b2422" }, "name" : "Guinea-Bissau", "code" : "GW", "currency_code" : "GWP" }
{ "_id" : { "$oid" : "5799a8ff617f690d1b7b2423" }, "name" : "Guyana", "code" : "GY", "currency_code" : "GYD" }
{ "_id" : { "$oid" : "5799a8ff617f690d1b7b2424" }, "name" : "Hong Kong", "code" : "HK", "currency_code" : "HKD" }
{ "_id" : { "$oid" : "5799a8ff617f690d1b7b2425" }, "name" : "Heard and McDonald Islands", "code" : "HM", "currency_code" : "AUD" }
{ "_id" : { "$oid" : "5799a8ff617f690d1b7b2426" }, "name" : "Honduras", "code" : "HN", "currency_code" : "HNL" }
{ "_id" : { "$oid" : "5799a8ff617f690d1b7b2427" }, "name" : "Croatia", "code" : "HR", "currency_code" : "HRK" }
{ "_id" : { "$oid" : "5799a8ff617f690d1b7b2428" }, "name" : "Haiti", "code" : "HT", "currency_code" : "HTG" }
{ "_id" : { "$oid" : "5799a8ff617f690d1b7b2429" }, "name" : "Hungary", "code" : "HU", "currency_code" : "HUF" }
{ "_id" : { "$oid" : "5799a8ff617f690d1b7b242a" }, "name" : "Indonesia", "code" : "ID", "currency_code" : "IDR" }
{ "_id" : { "$oid" : "5799a8ff617f690d1b7b242b" }, "name" : "Ireland", "code" : "IE", "currency_code" : "EUR" }
{ "_id" : { "$oid" : "5799a8ff617f690d1b7b242c" }, "name" : "Israel", "code" : "IL", "currency_code" : "ILS" }
{ "_id" : { "$oid" : "5799a8ff617f690d1b7b242d" }, "name" : "Isle of Man", "code" : "IM", "currency_code" : "GBP" }
{ "_id" : { "$oid" : "5799a8ff617f690d1b7b242e" }, "name" : "India", "code" : "IN", "currency_code" : "INR" }
{ "_id" : { "$oid" : "5799a8ff617f690d1b7b242f" }, "name" : "British Indian Ocean Territory", "code" : "IO", "currency_code" : "USD" }
{ "_id" : { "$oid" : "5799a8ff617f690d1b7b2430" }, "name" : "Iraq", "code" : "IQ", "currency_code" : "IQD" }
{ "_id" : { "$oid" : "5799a8ff617f690d1b7b2431" }, "name" : "Iran", "code" : "IR", "currency_code" : "IRR" }
{ "_id" : { "$oid" : "5799a8ff617f690d1b7b2432" }, "name" : "Iceland", "code" : "IS", "currency_code" : "ISK" }
{ "_id" : { "$oid" : "5799a8ff617f690d1b7b2433" }, "name" : "Italy", "code" : "IT", "currency_code" : "EUR" }
{ "_id" : { "$oid" : "5799a8ff617f690d1b7b2434" }, "name" : "Jersey", "code" : "JE", "currency_code" : "GBP" }
{ "_id" : { "$oid" : "5799a8ff617f690d1b7b2435" }, "name" : "Jamaica", "code" : "JM", "currency_code" : "JMD" }
{ "_id" : { "$oid" : "5799a8ff617f690d1b7b2436" }, "name" : "Jordan", "code" : "JO", "currency_code" : "JOD" }
{ "_id" : { "$oid" : "5799a8ff617f690d1b7b2437" }, "name" : "Japan", "code" : "JP", "currency_code" : "JPY" }
{ "_id" : { "$oid" : "5799a8ff617f690d1b7b2438" }, "name" : "Kenya", "code" : "KE", "currency_code" : "KES" }
{ "_id" : { "$oid" : "5799a8ff617f690d1b7b2439" }, "name" : "Kyrgyzstan", "code" : "KG", "currency_code" : "KGS" }
{ "_id" : { "$oid" : "5799a8ff617f690d1b7b243a" }, "name" : "Cambodia", "code" : "KH", "currency_code" : "KHR" }
{ "_id" : { "$oid" : "5799a8ff617f690d1b7b243b" }, "name" : "Kiribati", "code" : "KI", "currency_code" : "AUD" }
{ "_id" : { "$oid" : "5799a8ff617f690d1b7b243c" }, "name" : "Comoros", "code" : "KM", "currency_code" : "KMF" }
{ "_id" : { "$oid" : "5799a8ff617f690d1b7b243d" }, "name" : "Saint Kitts and Nevis", "code" : "KN", "currency_code" : "XCD" }
{ "_id" : { "$oid" : "5799a8ff617f690d1b7b243e" }, "name" : "North Korea", "code" : "KP", "currency_code" : "KPW" }
{ "_id" : { "$oid" : "5799a8ff617f690d1b7b243f" }, "name" : "South Korea", "code" : "KR", "currency_code" : "KRW" }
{ "_id" : { "$oid" : "5799a8ff617f690d1b7b2440" }, "name" : "Kuwait", "code" : "KW", "currency_code" : "KWD" }
{ "_id" : { "$oid" : "5799a8ff617f690d1b7b2441" }, "name" : "Cayman Islands", "code" : "KY", "currency_code" : "KYD" }
{ "_id" : { "$oid" : "5799a8ff617f690d1b7b2442" }, "name" : "Kazakhstan", "code" : "KZ", "currency_code" : "KZT" }
{ "_id" : { "$oid" : "5799a8ff617f690d1b7b2443" }, "name" : "Lao People's Democratic Republic", "code" : "LA", "currency_code" : "LAK" }
{ "_id" : { "$oid" : "5799a8ff617f690d1b7b2444" }, "name" : "Lebanon", "code" : "LB", "currency_code" : "LBP" }
{ "_id" : { "$oid" : "5799a8ff617f690d1b7b2445" }, "name" : "Saint Lucia", "code" : "LC", "currency_code" : "XCD" }
{ "_id" : { "$oid" : "5799a8ff617f690d1b7b2446" }, "name" : "Liechtenstein", "code" : "LI", "currency_code" : "CHF" }
{ "_id" : { "$oid" : "5799a8ff617f690d1b7b2447" }, "name" : "Sri Lanka", "code" : "LK", "currency_code" : "LKR" }
{ "_id" : { "$oid" : "5799a8ff617f690d1b7b2448" }, "name" : "Liberia", "code" : "LR", "currency_code" : "LRD" }
{ "_id" : { "$oid" : "5799a8ff617f690d1b7b2449" }, "name" : "Lesotho", "code" : "LS", "currency_code" : "LSL" }
{ "_id" : { "$oid" : "5799a8ff617f690d1b7b244a" }, "name" : "Lithuania", "code" : "LT", "currency_code" : "LTL" }
{ "_id" : { "$oid" : "5799a8ff617f690d1b7b244b" }, "name" : "Luxembourg", "code" : "LU", "currency_code" : "EUR" }
{ "_id" : { "$oid" : "5799a8ff617f690d1b7b244c" }, "name" : "Latvia", "code" : "LV", "currency_code" : "LVL" }
{ "_id" : { "$oid" : "5799a8ff617f690d1b7b244d" }, "name" : "Libya", "code" : "LY", "currency_code" : "LYD" }
{ "_id" : { "$oid" : "5799a8ff617f690d1b7b244e" }, "name" : "Morocco", "code" : "MA", "currency_code" : "MAD" }
{ "_id" : { "$oid" : "5799a8ff617f690d1b7b244f" }, "name" : "Monaco", "code" : "MC", "currency_code" : "EUR" }
{ "_id" : { "$oid" : "5799a8ff617f690d1b7b2450" }, "name" : "Moldova", "code" : "MD", "currency_code" : "MDL" }
{ "_id" : { "$oid" : "5799a8ff617f690d1b7b2451" }, "name" : "Montenegro", "code" : "ME", "currency_code" : "LYD" }
{ "_id" : { "$oid" : "5799a8ff617f690d1b7b2452" }, "name" : "Saint-Martin (France)", "code" : "MF", "currency_code" : "EUR" }
{ "_id" : { "$oid" : "5799a8ff617f690d1b7b2453" }, "name" : "Madagascar", "code" : "MG", "currency_code" : "MGA" }
{ "_id" : { "$oid" : "5799a8ff617f690d1b7b2454" }, "name" : "Marshall Islands", "code" : "MH", "currency_code" : "USD" }
{ "_id" : { "$oid" : "5799a8ff617f690d1b7b2455" }, "name" : "Macedonia", "code" : "MK", "currency_code" : "MKD" }
{ "_id" : { "$oid" : "5799a8ff617f690d1b7b2456" }, "name" : "Mali", "code" : "ML", "currency_code" : "XOF" }
{ "_id" : { "$oid" : "5799a8ff617f690d1b7b2457" }, "name" : "Myanmar", "code" : "MM", "currency_code" : "MMK" }
{ "_id" : { "$oid" : "5799a8ff617f690d1b7b2458" }, "name" : "Mongolia", "code" : "MN", "currency_code" : "MNT" }
{ "_id" : { "$oid" : "5799a8ff617f690d1b7b2459" }, "name" : "Macau", "code" : "MO", "currency_code" : "MOP" }
{ "_id" : { "$oid" : "5799a8ff617f690d1b7b245a" }, "name" : "Northern Mariana Islands", "code" : "MP", "currency_code" : "USD" }
{ "_id" : { "$oid" : "5799a8ff617f690d1b7b245b" }, "name" : "Martinique", "code" : "MQ", "currency_code" : "EUR" }
{ "_id" : { "$oid" : "5799a8ff617f690d1b7b245c" }, "name" : "Mauritania", "code" : "MR", "currency_code" : "MRO" }
{ "_id" : { "$oid" : "5799a8ff617f690d1b7b245d" }, "name" : "Montserrat", "code" : "MS", "currency_code" : "XCD" }
{ "_id" : { "$oid" : "5799a8ff617f690d1b7b245e" }, "name" : "Malta", "code" : "MT", "currency_code" : "EUR" }
{ "_id" : { "$oid" : "5799a8ff617f690d1b7b245f" }, "name" : "Mauritius", "code" : "MU", "currency_code" : "MUR" }
{ "_id" : { "$oid" : "5799a8ff617f690d1b7b2460" }, "name" : "Maldives", "code" : "MV", "currency_code" : "MVR" }
{ "_id" : { "$oid" : "5799a8ff617f690d1b7b2461" }, "name" : "Malawi", "code" : "MW", "currency_code" : "MWK" }
{ "_id" : { "$oid" : "5799a8ff617f690d1b7b2462" }, "name" : "Mexico", "code" : "MX", "currency_code" : "MXN" }
{ "_id" : { "$oid" : "5799a8ff617f690d1b7b2463" }, "name" : "Malaysia", "code" : "MY", "currency_code" : "MYR" }
{ "_id" : { "$oid" : "5799a8ff617f690d1b7b2464" }, "name" : "Mozambique", "code" : "MZ", "currency_code" : "MZN" }
{ "_id" : { "$oid" : "5799a8ff617f690d1b7b2465" }, "name" : "Namibia", "code" : "NA", "currency_code" : "NAD" }
{ "_id" : { "$oid" : "5799a8ff617f690d1b7b2466" }, "name" : "New Caledonia", "code" : "NC", "currency_code" : "XPF" }
{ "_id" : { "$oid" : "5799a8ff617f690d1b7b2467" }, "name" : "Niger", "code" : "NE", "currency_code" : "XOF" }
{ "_id" : { "$oid" : "5799a8ff617f690d1b7b2468" }, "name" : "Norfolk Island", "code" : "NF", "currency_code" : "AUD" }
{ "_id" : { "$oid" : "5799a8ff617f690d1b7b2469" }, "name" : "Nigeria", "code" : "NG", "currency_code" : "NGN" }
{ "_id" : { "$oid" : "5799a8ff617f690d1b7b246a" }, "name" : "Nicaragua", "code" : "NI", "currency_code" : "NIO" }
{ "_id" : { "$oid" : "5799a8ff617f690d1b7b246b" }, "name" : "The Netherlands", "code" : "NL", "currency_code" : "EUR" }
{ "_id" : { "$oid" : "5799a8ff617f690d1b7b246c" }, "name" : "Norway", "code" : "NO", "currency_code" : "NOK" }
{ "_id" : { "$oid" : "5799a8ff617f690d1b7b246d" }, "name" : "Nepal", "code" : "NP", "currency_code" : "NPR" }
{ "_id" : { "$oid" : "5799a8ff617f690d1b7b246e" }, "name" : "Nauru", "code" : "NR", "currency_code" : "AUD" }
{ "_id" : { "$oid" : "5799a8ff617f690d1b7b246f" }, "name" : "Niue", "code" : "NU", "currency_code" : "NZD" }
{ "_id" : { "$oid" : "5799a8ff617f690d1b7b2470" }, "name" : "New Zealand", "code" : "NZ", "currency_code" : "NZD" }
{ "_id" : { "$oid" : "5799a8ff617f690d1b7b2471" }, "name" : "Oman", "code" : "OM", "currency_code" : "OMR" }
{ "_id" : { "$oid" : "5799a8ff617f690d1b7b2472" }, "name" : "Panama", "code" : "PA", "currency_code" : "PAB" }
{ "_id" : { "$oid" : "5799a8ff617f690d1b7b2473" }, "name" : "Peru", "code" : "PE", "currency_code" : "PEN" }
{ "_id" : { "$oid" : "5799a8ff617f690d1b7b2474" }, "name" : "French Polynesia", "code" : "PF", "currency_code" : "XPF" }
{ "_id" : { "$oid" : "5799a8ff617f690d1b7b2475" }, "name" : "Papua New Guinea", "code" : "PG", "currency_code" : "PGK" }
{ "_id" : { "$oid" : "5799a8ff617f690d1b7b2476" }, "name" : "Philippines", "code" : "PH", "currency_code" : "PHP" }
{ "_id" : { "$oid" : "5799a8ff617f690d1b7b2477" }, "name" : "Pakistan", "code" : "PK", "currency_code" : "PKR" }
{ "_id" : { "$oid" : "5799a8ff617f690d1b7b2478" }, "name" : "Poland", "code" : "PL", "currency_code" : "PLN" }
{ "_id" : { "$oid" : "5799a8ff617f690d1b7b2479" }, "name" : "St. Pierre and Miquelon", "code" : "PM", "currency_code" : "EUR" }
{ "_id" : { "$oid" : "5799a8ff617f690d1b7b247a" }, "name" : "Pitcairn", "code" : "PN", "currency_code" : "NZD" }
{ "_id" : { "$oid" : "5799a8ff617f690d1b7b247b" }, "name" : "Puerto Rico", "code" : "PR", "currency_code" : "USD" }
{ "_id" : { "$oid" : "5799a8ff617f690d1b7b247c" }, "name" : "Palestine, State of", "code" : "PS", "currency_code" : "ILS" }
{ "_id" : { "$oid" : "5799a8ff617f690d1b7b247d" }, "name" : "Portugal", "code" : "PT", "currency_code" : "EUR" }
{ "_id" : { "$oid" : "5799a8ff617f690d1b7b247e" }, "name" : "Palau", "code" : "PW", "currency_code" : "USD" }
{ "_id" : { "$oid" : "5799a8ff617f690d1b7b247f" }, "name" : "Paraguay", "code" : "PY", "currency_code" : "PYG" }
{ "_id" : { "$oid" : "5799a8ff617f690d1b7b2480" }, "name" : "Qatar", "code" : "QA", "currency_code" : "QAR" }
{ "_id" : { "$oid" : "5799a8ff617f690d1b7b2481" }, "name" : "Réunion", "code" : "RE", "currency_code" : "EUR" }
{ "_id" : { "$oid" : "5799a8ff617f690d1b7b2482" }, "name" : "Romania", "code" : "RO", "currency_code" : "RON" }
{ "_id" : { "$oid" : "5799a8ff617f690d1b7b2483" }, "name" : "Serbia", "code" : "RS", "currency_code" : "RSD" }
{ "_id" : { "$oid" : "5799a8ff617f690d1b7b2484" }, "name" : "Russian Federation", "code" : "RU", "currency_code" : "RUB" }
{ "_id" : { "$oid" : "5799a8ff617f690d1b7b2485" }, "name" : "Rwanda", "code" : "RW", "currency_code" : "RWF" }
{ "_id" : { "$oid" : "5799a8ff617f690d1b7b2486" }, "name" : "Saudi Arabia", "code" : "SA", "currency_code" : "SAR" }
{ "_id" : { "$oid" : "5799a8ff617f690d1b7b2487" }, "name" : "Solomon Islands", "code" : "SB", "currency_code" : "SBD" }
{ "_id" : { "$oid" : "5799a8ff617f690d1b7b2488" }, "name" : "Seychelles", "code" : "SC", "currency_code" : "SCR" }
{ "_id" : { "$oid" : "5799a8ff617f690d1b7b2489" }, "name" : "Sudan", "code" : "SD", "currency_code" : "SDD" }
{ "_id" : { "$oid" : "5799a8ff617f690d1b7b248a" }, "name" : "Sweden", "code" : "SE", "currency_code" : "SEK" }
{ "_id" : { "$oid" : "5799a8ff617f690d1b7b248b" }, "name" : "Singapore", "code" : "SG", "currency_code" : "SGD" }
{ "_id" : { "$oid" : "5799a8ff617f690d1b7b248c" }, "name" : "Saint Helena", "code" : "SH", "currency_code" : "SHP" }
{ "_id" : { "$oid" : "5799a8ff617f690d1b7b248d" }, "name" : "Slovenia", "code" : "SI", "currency_code" : "EUR" }
{ "_id" : { "$oid" : "5799a8ff617f690d1b7b248e" }, "name" : "Svalbard and Jan Mayen Islands", "code" : "SJ", "currency_code" : "NOK" }
{ "_id" : { "$oid" : "5799a8ff617f690d1b7b248f" }, "name" : "Slovakia", "code" : "SK", "currency_code" : "SKK" }
{ "_id" : { "$oid" : "5799a8ff617f690d1b7b2490" }, "name" : "Sierra Leone", "code" : "SL", "currency_code" : "SLL" }
{ "_id" : { "$oid" : "5799a8ff617f690d1b7b2491" }, "name" : "San Marino", "code" : "SM", "currency_code" : "ITL" }
{ "_id" : { "$oid" : "5799a8ff617f690d1b7b2492" }, "name" : "Senegal", "code" : "SN", "currency_code" : "XOF" }
{ "_id" : { "$oid" : "5799a8ff617f690d1b7b2493" }, "name" : "Somalia", "code" : "SO", "currency_code" : "SOD" }
{ "_id" : { "$oid" : "5799a8ff617f690d1b7b2494" }, "name" : "Suriname", "code" : "SR", "currency_code" : "SRG" }
{ "_id" : { "$oid" : "5799a8ff617f690d1b7b2495" }, "name" : "South Sudan", "code" : "SS", "currency_code" : "SSP" }
{ "_id" : { "$oid" : "5799a8ff617f690d1b7b2496" }, "name" : "Sao Tome and Principe", "code" : "ST", "currency_code" : "STD" }
{ "_id" : { "$oid" : "5799a8ff617f690d1b7b2497" }, "name" : "El Salvador", "code" : "SV", "currency_code" : "SVC" }
{ "_id" : { "$oid" : "5799a8ff617f690d1b7b2498" }, "name" : "Sint Maarten (Dutch part)", "code" : "SX", "currency_code" : "ANG" }
{ "_id" : { "$oid" : "5799a8ff617f690d1b7b2499" }, "name" : "Syria", "code" : "SY", "currency_code" : "SYP" }
{ "_id" : { "$oid" : "5799a8ff617f690d1b7b249a" }, "name" : "Swaziland", "code" : "SZ", "currency_code" : "SZL" }
{ "_id" : { "$oid" : "5799a8ff617f690d1b7b249b" }, "name" : "Turks and Caicos Islands", "code" : "TC", "currency_code" : "USD" }
{ "_id" : { "$oid" : "5799a8ff617f690d1b7b249c" }, "name" : "Chad", "code" : "TD", "currency_code" : "XAF" }
{ "_id" : { "$oid" : "5799a8ff617f690d1b7b249d" }, "name" : "French Southern Territories", "code" : "TF", "currency_code" : "EUR" }
{ "_id" : { "$oid" : "5799a8ff617f690d1b7b249e" }, "name" : "Togo", "code" : "TG", "currency_code" : "XOF" }
{ "_id" : { "$oid" : "5799a8ff617f690d1b7b249f" }, "name" : "Thailand", "code" : "TH", "currency_code" : "THB" }
{ "_id" : { "$oid" : "5799a8ff617f690d1b7b24a0" }, "name" : "Tajikistan", "code" : "TJ", "currency_code" : "TJR" }
{ "_id" : { "$oid" : "5799a8ff617f690d1b7b24a1" }, "name" : "Tokelau", "code" : "TK", "currency_code" : "NZD" }
{ "_id" : { "$oid" : "5799a8ff617f690d1b7b24a2" }, "name" : "Timor-Leste", "code" : "TL", "currency_code" : "" }
{ "_id" : { "$oid" : "5799a8ff617f690d1b7b24a3" }, "name" : "Turkmenistan", "code" : "TM", "currency_code" : "TMM" }
{ "_id" : { "$oid" : "5799a8ff617f690d1b7b24a4" }, "name" : "Tunisia", "code" : "TN", "currency_code" : "TND" }
{ "_id" : { "$oid" : "5799a8ff617f690d1b7b24a5" }, "name" : "Tonga", "code" : "TO", "currency_code" : "TOP" }
{ "_id" : { "$oid" : "5799a8ff617f690d1b7b24a6" }, "name" : "Turkey", "code" : "TR", "currency_code" : "TRY" }
{ "_id" : { "$oid" : "5799a8ff617f690d1b7b24a7" }, "name" : "Trinidad and Tobago", "code" : "TT", "currency_code" : "TTD" }
{ "_id" : { "$oid" : "5799a8ff617f690d1b7b24a8" }, "name" : "Tuvalu", "code" : "TV", "currency_code" : "AUD" }
{ "_id" : { "$oid" : "5799a8ff617f690d1b7b24a9" }, "name" : "Taiwan", "code" : "TW", "currency_code" : "TWD" }
{ "_id" : { "$oid" : "5799a8ff617f690d1b7b24aa" }, "name" : "Tanzania", "code" : "TZ", "currency_code" : "TZS" }
{ "_id" : { "$oid" : "5799a8ff617f690d1b7b24ab" }, "name" : "Ukraine", "code" : "UA", "currency_code" : "UAG" }
{ "_id" : { "$oid" : "5799a8ff617f690d1b7b24ac" }, "name" : "Uganda", "code" : "UG", "currency_code" : "UGX" }
{ "_id" : { "$oid" : "5799a8ff617f690d1b7b24ad" }, "name" : "United States Minor Outlying Islands", "code" : "UM", "currency_code" : "USD" }
{ "_id" : { "$oid" : "5799a8ff617f690d1b7b24ae" }, "name" : "United States", "code" : "US", "currency_code" : "USD" }
{ "_id" : { "$oid" : "5799a8ff617f690d1b7b24af" }, "name" : "Uruguay", "code" : "UY", "currency_code" : "UYU" }
{ "_id" : { "$oid" : "5799a8ff617f690d1b7b24b0" }, "name" : "Uzbekistan", "code" : "UZ", "currency_code" : "UZS" }
{ "_id" : { "$oid" : "5799a8ff617f690d1b7b24b1" }, "name" : "Vatican", "code" : "VA", "currency_code" : "EUR" }
{ "_id" : { "$oid" : "5799a8ff617f690d1b7b24b2" }, "name" : "Saint Vincent and the Grenadines", "code" : "VC", "currency_code" : "XCD" }
{ "_id" : { "$oid" : "5799a8ff617f690d1b7b24b3" }, "name" : "Venezuela", "code" : "VE", "currency_code" : "VEF" }
{ "_id" : { "$oid" : "5799a8ff617f690d1b7b24b4" }, "name" : "Virgin Islands (British)", "code" : "VG", "currency_code" : "USD" }
{ "_id" : { "$oid" : "5799a8ff617f690d1b7b24b5" }, "name" : "Virgin Islands (U.S.)", "code" : "VI", "currency_code" : "USD" }
{ "_id" : { "$oid" : "5799a8ff617f690d1b7b24b6" }, "name" : "Vietnam", "code" : "VN", "currency_code" : "VND" }
{ "_id" : { "$oid" : "5799a8ff617f690d1b7b24b7" }, "name" : "Vanuatu", "code" : "VU", "currency_code" : "VUV" }
{ "_id" : { "$oid" : "5799a8ff617f690d1b7b24b8" }, "name" : "Wallis and Futuna Islands", "code" : "WF", "currency_code" : "XPF" }
{ "_id" : { "$oid" : "5799a8ff617f690d1b7b24b9" }, "name" : "Samoa", "code" : "WS", "currency_code" : "WST" }
{ "_id" : { "$oid" : "5799a8ff617f690d1b7b24ba" }, "name" : "Yemen", "code" : "YE", "currency_code" : "YER" }
{ "_id" : { "$oid" : "5799a8ff617f690d1b7b24bb" }, "name" : "Mayotte", "code" : "YT", "currency_code" : "EUR" }
{ "_id" : { "$oid" : "5799a8ff617f690d1b7b24bc" }, "name" : "South Africa", "code" : "ZA", "currency_code" : "ZAR" }
{ "_id" : { "$oid" : "5799a8ff617f690d1b7b24bd" }, "name" : "Zambia", "code" : "ZM", "currency_code" : "ZMK" }
{ "_id" : { "$oid" : "5799a8ff617f690d1b7b24be" }, "name" : "Zimbabwe", "code" : "ZW", "currency_code" : "ZWD" }
{ "_id" : { "$oid" : "5799a8ff617f690d1b7b24bf" }, "name" : "Netherlands Antilles", "code" : "AN", "currency_code" : "NOK" }
{ "_id" : { "$oid" : "5799a8ff617f690d1b7b24c0" }, "name" : "Neutral Zone", "code" : "NT", "currency_code" : "IQD" }
{ "_id" : { "$oid" : "5799a8ff617f690d1b7b24c1" }, "name" : "East Timor", "code" : "TP", "currency_code" : "TPE" }
{ "_id" : { "$oid" : "5799a8ff617f690d1b7b24c2" }, "name" : "Yugoslavia", "code" : "YU", "currency_code" : "YUM" }
{ "_id" : { "$oid" : "5799a8ff617f690d1b7b24c3" }, "name" : "Zaire", "code" : "ZR", "currency_code" : "ZRZ" }
